Traceback (most recent call last):
  File "/wrk/users/pengzhou/my-envs/flow/lib/python3.6/site-packages/redis/connection.py", line 177, in _read_from_socket
    raise socket.error(SERVER_CLOSED_CONNECTION_ERROR)
OSError: Connection closed by server.

During handling of the above exception, another exception occurred:

Traceback (most recent call last):
  File "/wrk/users/pengzhou/my-envs/flow/lib/python3.6/site-packages/redis/client.py", line 668, in execute_command
    return self.parse_response(connection, command_name, **options)
  File "/wrk/users/pengzhou/my-envs/flow/lib/python3.6/site-packages/redis/client.py", line 680, in parse_response
    response = connection.read_response()
  File "/wrk/users/pengzhou/my-envs/flow/lib/python3.6/site-packages/redis/connection.py", line 624, in read_response
    response = self._parser.read_response()
  File "/wrk/users/pengzhou/my-envs/flow/lib/python3.6/site-packages/redis/connection.py", line 284, in read_response
    response = self._buffer.readline()
  File "/wrk/users/pengzhou/my-envs/flow/lib/python3.6/site-packages/redis/connection.py", line 216, in readline
    self._read_from_socket()
  File "/wrk/users/pengzhou/my-envs/flow/lib/python3.6/site-packages/redis/connection.py", line 191, in _read_from_socket
    (e.args,))
redis.exceptions.ConnectionError: Error while reading from socket: ('Connection closed by server.',)

During handling of the above exception, another exception occurred:

Traceback (most recent call last):
  File "/wrk/users/pengzhou/my-envs/flow/lib/python3.6/site-packages/redis/connection.py", line 484, in connect
    sock = self._connect()
  File "/wrk/users/pengzhou/my-envs/flow/lib/python3.6/site-packages/redis/connection.py", line 541, in _connect
    raise err
  File "/wrk/users/pengzhou/my-envs/flow/lib/python3.6/site-packages/redis/connection.py", line 529, in _connect
    sock.connect(socket_address)
ConnectionRefusedError: [Errno 111] Connection refused

During handling of the above exception, another exception occurred:

Traceback (most recent call last):
  File "/wrk/users/pengzhou/my-envs/flow/lib/python3.6/site-packages/ray/log_monitor.py", line 268, in <module>
    log_monitor.run()
  File "/wrk/users/pengzhou/my-envs/flow/lib/python3.6/site-packages/ray/log_monitor.py", line 219, in run
    anything_published = self.check_log_files_and_publish_updates()
  File "/wrk/users/pengzhou/my-envs/flow/lib/python3.6/site-packages/ray/log_monitor.py", line 204, in check_log_files_and_publish_updates
    "lines": lines_to_publish
  File "/wrk/users/pengzhou/my-envs/flow/lib/python3.6/site-packages/redis/client.py", line 2034, in publish
    return self.execute_command('PUBLISH', channel, message)
  File "/wrk/users/pengzhou/my-envs/flow/lib/python3.6/site-packages/redis/client.py", line 673, in execute_command
    connection.send_command(*args)
  File "/wrk/users/pengzhou/my-envs/flow/lib/python3.6/site-packages/redis/connection.py", line 610, in send_command
    self.send_packed_command(self.pack_command(*args))
  File "/wrk/users/pengzhou/my-envs/flow/lib/python3.6/site-packages/redis/connection.py", line 585, in send_packed_command
    self.connect()
  File "/wrk/users/pengzhou/my-envs/flow/lib/python3.6/site-packages/redis/connection.py", line 489, in connect
    raise ConnectionError(self._error_message(e))
redis.exceptions.ConnectionError: Error 111 connecting to 128.214.48.197:54117. Connection refused.

During handling of the above exception, another exception occurred:

Traceback (most recent call last):
  File "/wrk/users/pengzhou/my-envs/flow/lib/python3.6/site-packages/redis/connection.py", line 484, in connect
    sock = self._connect()
  File "/wrk/users/pengzhou/my-envs/flow/lib/python3.6/site-packages/redis/connection.py", line 541, in _connect
    raise err
  File "/wrk/users/pengzhou/my-envs/flow/lib/python3.6/site-packages/redis/connection.py", line 529, in _connect
    sock.connect(socket_address)
ConnectionRefusedError: [Errno 111] Connection refused

During handling of the above exception, another exception occurred:

Traceback (most recent call last):
  File "/wrk/users/pengzhou/my-envs/flow/lib/python3.6/site-packages/redis/client.py", line 667, in execute_command
    connection.send_command(*args)
  File "/wrk/users/pengzhou/my-envs/flow/lib/python3.6/site-packages/redis/connection.py", line 610, in send_command
    self.send_packed_command(self.pack_command(*args))
  File "/wrk/users/pengzhou/my-envs/flow/lib/python3.6/site-packages/redis/connection.py", line 585, in send_packed_command
    self.connect()
  File "/wrk/users/pengzhou/my-envs/flow/lib/python3.6/site-packages/redis/connection.py", line 489, in connect
    raise ConnectionError(self._error_message(e))
redis.exceptions.ConnectionError: Error 111 connecting to 128.214.48.197:54117. Connection refused.

During handling of the above exception, another exception occurred:

Traceback (most recent call last):
  File "/wrk/users/pengzhou/my-envs/flow/lib/python3.6/site-packages/redis/connection.py", line 484, in connect
    sock = self._connect()
  File "/wrk/users/pengzhou/my-envs/flow/lib/python3.6/site-packages/redis/connection.py", line 541, in _connect
    raise err
  File "/wrk/users/pengzhou/my-envs/flow/lib/python3.6/site-packages/redis/connection.py", line 529, in _connect
    sock.connect(socket_address)
ConnectionRefusedError: [Errno 111] Connection refused

During handling of the above exception, another exception occurred:

Traceback (most recent call last):
  File "/wrk/users/pengzhou/my-envs/flow/lib/python3.6/site-packages/ray/log_monitor.py", line 277, in <module>
    redis_client, ray_constants.LOG_MONITOR_DIED_ERROR, message)
  File "/wrk/users/pengzhou/my-envs/flow/lib/python3.6/site-packages/ray/utils.py", line 100, in push_error_to_driver_through_redis
    error_data)
  File "/wrk/users/pengzhou/my-envs/flow/lib/python3.6/site-packages/redis/client.py", line 673, in execute_command
    connection.send_command(*args)
  File "/wrk/users/pengzhou/my-envs/flow/lib/python3.6/site-packages/redis/connection.py", line 610, in send_command
    self.send_packed_command(self.pack_command(*args))
  File "/wrk/users/pengzhou/my-envs/flow/lib/python3.6/site-packages/redis/connection.py", line 585, in send_packed_command
    self.connect()
  File "/wrk/users/pengzhou/my-envs/flow/lib/python3.6/site-packages/redis/connection.py", line 489, in connect
    raise ConnectionError(self._error_message(e))
redis.exceptions.ConnectionError: Error 111 connecting to 128.214.48.197:54117. Connection refused.
