WARNING: Logging before InitGoogleLogging() is written to STDERR
I0619 07:40:32.991569 36271 store.cc:1122] Allowing the Plasma store to use up to 32.2123GB of memory.
I0619 07:40:32.999050 36271 store.cc:1149] Starting object store with directory /dev/shm and huge page support disabled
I0619 07:40:56.742188 36271 store.cc:721] Disconnecting client on fd 12
I0619 07:41:10.366118 36271 store.cc:721] Disconnecting client on fd 66
I0619 07:41:23.910923 36271 store.cc:721] Disconnecting client on fd 63
I0619 07:41:37.536231 36271 store.cc:721] Disconnecting client on fd 62
I0619 07:41:51.356153 36271 store.cc:721] Disconnecting client on fd 59
I0619 07:42:05.055759 36271 store.cc:721] Disconnecting client on fd 58
I0619 07:42:18.850236 36271 store.cc:721] Disconnecting client on fd 31
I0619 07:42:32.343542 36271 store.cc:721] Disconnecting client on fd 30
I0619 07:42:45.845466 36271 store.cc:721] Disconnecting client on fd 28
I0619 07:42:59.422814 36271 store.cc:721] Disconnecting client on fd 21
I0619 07:43:13.269644 36271 store.cc:721] Disconnecting client on fd 29
I0619 07:43:26.902447 36271 store.cc:721] Disconnecting client on fd 35
I0619 07:43:40.469058 36271 store.cc:721] Disconnecting client on fd 26
I0619 07:43:54.071707 36271 store.cc:721] Disconnecting client on fd 39
I0619 07:44:07.668565 36271 store.cc:721] Disconnecting client on fd 23
I0619 07:44:21.214355 36271 store.cc:721] Disconnecting client on fd 11
I0619 07:44:34.877091 36271 store.cc:721] Disconnecting client on fd 13
I0619 07:44:43.428337 36271 store.cc:721] Disconnecting client on fd 10
I0619 07:44:43.492066 36271 store.cc:721] Disconnecting client on fd 38
I0619 07:44:43.492204 36271 store.cc:721] Disconnecting client on fd 33
I0619 07:44:43.493299 36271 store.cc:721] Disconnecting client on fd 37
I0619 07:44:43.493443 36271 store.cc:721] Disconnecting client on fd 36
I0619 07:44:43.494705 36271 store.cc:721] Disconnecting client on fd 60
I0619 07:44:43.497499 36271 store.cc:721] Disconnecting client on fd 41
I0619 07:44:43.497977 36271 store.cc:721] Disconnecting client on fd 45
I0619 07:44:43.500016 36271 store.cc:721] Disconnecting client on fd 22
I0619 07:44:43.500141 36271 store.cc:721] Disconnecting client on fd 50
I0619 07:44:43.502223 36271 store.cc:721] Disconnecting client on fd 25
I0619 07:44:43.503674 36271 store.cc:721] Disconnecting client on fd 61
I0619 07:44:43.511688 36271 store.cc:721] Disconnecting client on fd 42
I0619 07:44:43.512632 36271 store.cc:721] Disconnecting client on fd 40
I0619 07:44:43.513651 36271 store.cc:721] Disconnecting client on fd 64
I0619 07:44:43.515024 36271 store.cc:721] Disconnecting client on fd 24
I0619 07:44:43.516122 36271 store.cc:721] Disconnecting client on fd 52
I0619 07:44:43.516284 36271 store.cc:721] Disconnecting client on fd 44
I0619 07:44:43.516752 36271 store.cc:721] Disconnecting client on fd 55
I0619 07:44:43.520439 36271 store.cc:721] Disconnecting client on fd 17
I0619 07:44:43.520996 36271 store.cc:721] Disconnecting client on fd 18
I0619 07:44:43.522011 36271 store.cc:721] Disconnecting client on fd 51
I0619 07:44:43.522125 36271 store.cc:721] Disconnecting client on fd 47
I0619 07:44:43.522231 36271 store.cc:721] Disconnecting client on fd 32
I0619 07:44:43.523602 36271 store.cc:721] Disconnecting client on fd 49
I0619 07:44:43.524289 36271 store.cc:721] Disconnecting client on fd 57
I0619 07:44:43.525504 36271 store.cc:721] Disconnecting client on fd 34
I0619 07:44:43.527387 36271 store.cc:721] Disconnecting client on fd 27
I0619 07:44:43.529377 36271 store.cc:721] Disconnecting client on fd 19
I0619 07:44:43.530963 36271 store.cc:721] Disconnecting client on fd 46
I0619 07:44:43.531061 36271 store.cc:721] Disconnecting client on fd 54
I0619 07:44:43.533684 36271 store.cc:721] Disconnecting client on fd 43
I0619 07:44:43.534044 36271 store.cc:721] Disconnecting client on fd 48
I0619 07:44:43.537175 36271 store.cc:721] Disconnecting client on fd 65
I0619 07:44:43.537820 36271 store.cc:721] Disconnecting client on fd 15
I0619 07:44:43.541018 36271 store.cc:721] Disconnecting client on fd 20
I0619 07:44:43.548137 36271 store.cc:721] Disconnecting client on fd 53
I0619 07:44:43.557601 36271 store.cc:721] Disconnecting client on fd 16
I0619 07:44:43.558017 36271 store.cc:721] Disconnecting client on fd 56
I0619 07:44:44.011961 36271 store.cc:721] Disconnecting client on fd 6
I0619 07:44:44.099112 36271 store.cc:1072] SIGTERM Signal received, closing Plasma Server...
