Ray worker pid: 36332
Error during start: [Errno 2] No such file or directory: '/proj/pengzhou/git/flow/flow/core/kernel/network/debug/cfg/traffic_light_grid_20200619-0740461592541646.5989254.net.xml'
Retrying in 1 seconds...
Error during start: [Errno 2] No such file or directory: '/proj/pengzhou/git/flow/flow/core/kernel/network/debug/cfg/traffic_light_grid_20200619-0740461592541646.5989254.net.xml'
Retrying in 1 seconds...
Error during start: [Errno 2] No such file or directory: '/proj/pengzhou/git/flow/flow/core/kernel/network/debug/cfg/traffic_light_grid_20200619-0740461592541646.5989254.net.xml'
Retrying in 1 seconds...
Error during start: [Errno 2] No such file or directory: '/proj/pengzhou/git/flow/flow/core/kernel/network/debug/cfg/traffic_light_grid_20200619-0740461592541646.5989254.net.xml'
Retrying in 1 seconds...
Error during start: [Errno 2] No such file or directory: '/proj/pengzhou/git/flow/flow/core/kernel/network/debug/cfg/traffic_light_grid_20200619-0740461592541646.5989254.net.xml'
Retrying in 1 seconds...
Error during start: [Errno 2] No such file or directory: '/proj/pengzhou/git/flow/flow/core/kernel/network/debug/cfg/traffic_light_grid_20200619-0740461592541646.5989254.net.xml'
Retrying in 1 seconds...
Error during start: [Errno 2] No such file or directory: '/proj/pengzhou/git/flow/flow/core/kernel/network/debug/cfg/traffic_light_grid_20200619-0740461592541646.5989254.net.xml'
Retrying in 1 seconds...
Error during start: [Errno 2] No such file or directory: '/proj/pengzhou/git/flow/flow/core/kernel/network/debug/cfg/traffic_light_grid_20200619-0740461592541646.5989254.net.xml'
Retrying in 1 seconds...
Error during start: [Errno 2] No such file or directory: '/proj/pengzhou/git/flow/flow/core/kernel/network/debug/cfg/traffic_light_grid_20200619-0740461592541646.5989254.net.xml'
Retrying in 1 seconds...
Error during start: [Errno 2] No such file or directory: '/proj/pengzhou/git/flow/flow/core/kernel/network/debug/cfg/traffic_light_grid_20200619-0740461592541646.5989254.net.xml'
Retrying in 1 seconds...
