Ray worker pid: 36358
2020-06-19 07:44:43,450	ERROR import_thread.py:89 -- ImportThread: Error 111 connecting to 128.214.48.197:54117. Connection refused.
Traceback (most recent call last):
  File "/wrk/users/pengzhou/my-envs/flow/lib/python3.6/site-packages/ray/workers/default_worker.py", line 98, in <module>
    ray.worker.global_worker.main_loop()
  File "/wrk/users/pengzhou/my-envs/flow/lib/python3.6/site-packages/ray/worker.py", line 1087, in main_loop
    task = self._get_next_task_from_raylet()
  File "/wrk/users/pengzhou/my-envs/flow/lib/python3.6/site-packages/ray/worker.py", line 1070, in _get_next_task_from_raylet
    task = self.raylet_client.get_task()
  File "python/ray/_raylet.pyx", line 247, in ray._raylet.RayletClient.get_task
  File "python/ray/_raylet.pyx", line 61, in ray._raylet.check_status
ray.exceptions.RayletError: The Raylet died with this message: [RayletClient] Raylet connection closed.

During handling of the above exception, another exception occurred:

Traceback (most recent call last):
  File "/wrk/users/pengzhou/my-envs/flow/lib/python3.6/site-packages/ray/workers/default_worker.py", line 105, in <module>
    job_id=None)
  File "/wrk/users/pengzhou/my-envs/flow/lib/python3.6/site-packages/ray/utils.py", line 68, in push_error_to_driver
    worker.raylet_client.push_error(job_id, error_type, message, time.time())
  File "python/ray/_raylet.pyx", line 300, in ray._raylet.RayletClient.push_error
  File "python/ray/_raylet.pyx", line 61, in ray._raylet.check_status
ray.exceptions.RayletError: The Raylet died with this message: [RayletClient] Connection closed unexpectedly.
